EDA
…
Perfect! We can see that for females, the proportion of patients with prediabetes/diabetes versus no diabetes is around 13%, while 15% of the male patients are prediabetic/diabetic. I wonder what else we can find…

diabetes_convert |>
  group_by(Age, Diabetes_binary) |>
  summarize(count=n()) |>
  mutate(Proportion = count/sum(count)) 

`summarise()` has grouped output by 'Age'. You can override using the `.groups`
argument.

# A tibble: 26 × 4
# Groups:   Age [13]
   Age   Diabetes_binary         count Proportion
   <fct> <fct>                   <int>      <dbl>
 1 18-24 No Diabetes              5622     0.986 
 2 18-24 Prediabetes or Diabetes    78     0.0137
 3 25-29 No Diabetes              7458     0.982 
 4 25-29 Prediabetes or Diabetes   140     0.0184
 5 30-34 No Diabetes             10809     0.972 
 6 30-34 Prediabetes or Diabetes   314     0.0282
 7 35-39 No Diabetes             13197     0.955 
 8 35-39 Prediabetes or Diabetes   626     0.0453
 9 40-44 No Diabetes             15106     0.935 
10 40-44 Prediabetes or Diabetes  1051     0.0650
# ℹ 16 more rows
…
`summarise()` has grouped output by 'Diabetes_binary', 'Sex'. You can override
using the `.groups` argument.

summary_stats

# A tibble: 52 × 5
# Groups:   Diabetes_binary, Sex [4]
   Diabetes_binary Sex    Age   mean_BMI median_BMI
   <fct>           <fct>  <fct>    <dbl>      <dbl>
 1 No Diabetes     Female 18-24     25.7         24
 2 No Diabetes     Female 25-29     27.3         26
 3 No Diabetes     Female 30-34     28.1         26
 4 No Diabetes     Female 35-39     27.9         27
 5 No Diabetes     Female 40-44     28.1         27
 6 No Diabetes     Female 45-49     28.1         27
 7 No Diabetes     Female 50-54     27.9         27
 8 No Diabetes     Female 55-59     27.8         27
 9 No Diabetes     Female 60-64     27.7         27
10 No Diabetes     Female 65-69     27.5         27
# ℹ 42 more rows
…
