Modeling
…
cells_resampling_2 <- cells_resampling |>
  select(id, .extracts) |>
  unnest(.extracts) |>
  unnest(.extracts) 

cells_resampling_2

# A tibble: 105 × 4
   id    Variable  Importance .config        
   <chr> <chr>          <dbl> <chr>          
 1 Fold1 BMI            3100. pre0_mod0_post0
 2 Fold1 GenHlth        1944. pre0_mod0_post0
 3 Fold1 Age            1925. pre0_mod0_post0
 4 Fold1 PhysHlth       1416. pre0_mod0_post0
 5 Fold1 Income         1411. pre0_mod0_post0
 6 Fold1 HighBP         1202. pre0_mod0_post0
 7 Fold1 MentHlth       1125. pre0_mod0_post0
 8 Fold1 Education      1027. pre0_mod0_post0
 9 Fold1 HighChol        714. pre0_mod0_post0
10 Fold1 DiffWalk        686. pre0_mod0_post0
# ℹ 95 more rows
…
